…
Neither of these options are ideal, since any subsetting of the survey data means you must keep track of the question metadata separately.

This package solves the problem by creating a new class, `surveydata`, and keeping the questions as an attribute of this class. Whenever you do a subsetting operation, the metadata stays intact.

In addition, the metadata knows if a question consists of a single column, or multiple columns. When doing subsetting on the question name, the resulting object can be either a single column or multiple columns.

``` r
library(surveydata)
library(dplyr)
sv <- membersurvey %>% as.tbl()
sv
```

    ## # A tibble: 215 x 109
    ##       id  Q1_1  Q1_2          Q2   Q3_1   Q3_2   Q3_3   Q3_4   Q3_5   Q3_6
    ##    <dbl> <dbl> <dbl>       <ord> <fctr> <fctr> <fctr> <fctr> <fctr> <fctr>
    ##  1     3     8   2.0        2009     No     No     No     No     No     No
    ##  2     5    35  12.0 Before 2002    Yes     No     No     No     No     No
    ##  3     6    34  12.0 Before 2002    Yes    Yes     No     No     No    Yes
    ##  4    11    20   9.0        2010     No     No     No     No     No     No
    ##  5    13    20   3.0        2010     No     No     No     No     No     No
    ##  6    15    36  20.0 Before 2002     No    Yes     No     No     No     No
    ##  7    21    12   2.5        2009    Yes     No     No     No     No    Yes
    ##  8    22    11   0.5        2011    Yes    Yes    Yes    Yes    Yes     No
    ##  9    23    18   3.0        2008    Yes    Yes    Yes    Yes    Yes    Yes
    ## 10    25    24   8.0        2006     No     No     No    Yes    Yes    Yes
    ## # ... with 205 more rows, and 99 more variables: Q3_7 <fctr>, Q3_8 <fctr>,
    ## #   Q3_9 <fctr>, Q3_10 <fctr>, Q3_11 <fctr>, Q3_12 <fctr>, Q3_13 <fctr>,
    ## #   Q3_14 <fctr>, Q3_15 <fctr>, Q4 <fctr>, Q5 <fctr>, Q6_1 <fctr>,
    ## #   Q6_2 <fctr>, Q6_3 <fctr>, Q6_4 <fctr>, Q6_5 <fctr>, Q6_6 <fctr>,
    ## #   Q6_7 <fctr>, Q6_8 <fctr>, Q6_9 <fctr>, Q6_10 <fctr>, Q7 <fctr>,
    ## #   Q8 <fctr>, Q9_1 <fctr>, Q9_2 <fctr>, Q9_3 <fctr>, Q9_4 <fctr>,
    ## #   Q9_5 <fctr>, Q10 <fctr>, Q11_1 <fctr>, Q11_2 <fctr>, Q11_3 <fctr>,
    ## #   Q11_4 <fctr>, Q11_5 <fctr>, Q11_other <fctr>, Q12_1 <fctr>,
    ## #   Q13_1 <fctr>, Q13_2 <fctr>, Q13_3 <fctr>, Q13_4 <fctr>, Q14_1 <fctr>,
…
