Introduction to the surveydata package.
…
Keep the questions as an attribute of the data frame

Neither of these options are ideal, since any subsetting of the survey data means you must keep track of the question metadata separately.

This package solves the problem by creating a new class, surveydata, and keeping the questions as an attribute of this class. Whenever you do a subsetting operation, the metadata stays intact.

In addition, the metadata knows if a question consists of a single column, or multiple columns. When doing subsetting on the question name, the resulting object can be either a single column or multiple columns.

library(surveydata)
library(dplyr)

sv <- membersurvey %>% as.tbl()
sv

## # A tibble: 215 x 109
##       id  Q1_1  Q1_2 Q2     Q3_1  Q3_2  Q3_3  Q3_4  Q3_5  Q3_6  Q3_7  Q3_8 
##    <dbl> <dbl> <dbl> <ord>  <fct> <fct> <fct> <fct> <fct> <fct> <fct> <fct>
##  1     3     8   2   2009   No    No    No    No    No    No    No    No   
##  2     5    35  12   Befor~ Yes   No    No    No    No    No    No    No   
##  3     6    34  12   Befor~ Yes   Yes   No    No    No    Yes   No    No   
##  4    11    20   9   2010   No    No    No    No    No    No    No    No   
##  5    13    20   3   2010   No    No    No    No    No    No    No    No   
##  6    15    36  20   Befor~ No    Yes   No    No    No    No    No    No   
##  7    21    12   2.5 2009   Yes   No    No    No    No    Yes   Yes   No   
##  8    22    11   0.5 2011   Yes   Yes   Yes   Yes   Yes   No    No    No   
##  9    23    18   3   2008   Yes   Yes   Yes   Yes   Yes   Yes   No    No   
## 10    25    24   8   2006   No    No    No    Yes   Yes   Yes   No    No   
## # ... with 205 more rows, and 97 more variables: Q3_9 <fct>, Q3_10 <fct>,
...

Notice from this summary that Question 2 has two columns, i.e. Q2_1 and Q2_2. You can extract both these columns by simply referring to Q2:

sv[, "Q2"]

## # A tibble: 215 x 1
##    Q2         
##    <ord>      
##  1 2009       
##  2 Before 2002
##  3 Before 2002
##  4 2010       
##  5 2010       
##  6 Before 2002
##  7 2009       
##  8 2011       
##  9 2008       
## 10 2006       
## # ... with 205 more rows

However, the subset of Q1 returns only a single column:

sv[, "Q2"]

## # A tibble: 215 x 1
##    Q2         
##    <ord>      
##  1 2009       
##  2 Before 2002
##  3 Before 2002
##  4 2010       
##  5 2010       
##  6 Before 2002
##  7 2009       
##  8 2011       
##  9 2008       
## 10 2006       
## # ... with 205 more rows
…
