Introduction to the surveydata package. • surveydata
…
sv <- membersurvey %>% as.tbl()

## Warning: `as.tbl()` is deprecated as of dplyr 1.0.0.
## Please use `tibble::as_tibble()` instead.
## This warning is displayed once every 8 hours.
## Call `lifecycle::last_warnings()` to see where this warning was generated.

## Warning: 'as.tbl.surveydata' is deprecated.
## Use 'as_tibble' instead.
## See help("Deprecated")

sv

## # A tibble: 215 x 109
##       id  Q1_1  Q1_2 Q2    Q3_1  Q3_2  Q3_3  Q3_4  Q3_5  Q3_6  Q3_7  Q3_8  Q3_9 
##    <dbl> <dbl> <dbl> <ord> <fct> <fct> <fct> <fct> <fct> <fct> <fct> <fct> <fct>
##  1     3     8   2   2009  No    No    No    No    No    No    No    No    No   
##  2     5    35  12   Befo… Yes   No    No    No    No    No    No    No    Yes  
##  3     6    34  12   Befo… Yes   Yes   No    No    No    Yes   No    No    No   
##  4    11    20   9   2010  No    No    No    No    No    No    No    No    No   
##  5    13    20   3   2010  No    No    No    No    No    No    No    No    No   
##  6    15    36  20   Befo… No    Yes   No    No    No    No    No    No    Yes  
##  7    21    12   2.5 2009  Yes   No    No    No    No    Yes   Yes   No    No   
##  8    22    11   0.5 2011  Yes   Yes   Yes   Yes   Yes   No    No    No    No   
##  9    23    18   3   2008  Yes   Yes   Yes   Yes   Yes   Yes   No    No    Yes  
## 10    25    24   8   2006  No    No    No    Yes   Yes   Yes   No    No    Yes  
## # … with 205 more rows, and 96 more variables: Q3_10 <fct>, Q3_11 <fct>,
...

Notice from this summary that Question 2 has two columns, i.e. Q2_1 and Q2_2. You can extract both these columns by simply referring to Q2:

sv[, "Q2"]

## # A tibble: 215 x 1
##    Q2         
##    <ord>      
##  1 2009       
##  2 Before 2002
##  3 Before 2002
##  4 2010       
##  5 2010       
##  6 Before 2002
##  7 2009       
##  8 2011       
##  9 2008       
## 10 2006       
## # … with 205 more rows

However, the subset of Q1 returns only a single column:

sv[, "Q2"]

## # A tibble: 215 x 1
##    Q2         
##    <ord>      
##  1 2009       
##  2 Before 2002
##  3 Before 2002
##  4 2010       
##  5 2010       
##  6 Before 2002
##  7 2009       
##  8 2011       
##  9 2008       
## 10 2006       
## # … with 205 more rows
…
